,Unnamed: 0,Company ID,KFC,Name,Person ID,Title,Bio from Document,Bio from Database
0,0,4200311,122319408,Haim Tsuff,[937726],"['Chairman, President & Co-CEO']","Our board of directors unanimously (other than Mr. Haim Tsuff) recommends that you vote “FOR” the proposal to adopt the Merger Agreement, and “FOR” the proposal to adjourn or postpone the special meeting in order to take such actions as our Board determines are necessary or appropriate, including to ensure that any necessary supplement or amendment to the proxy statement accompanying this notice is provided to the Company stockholders a reasonable amount of time in advance of the special meeting or to solicit additional proxies if there are insufficient votes at the time of the special meeting to approve the proposal to adopt the Merger Agreement.","Mr. Haim Tsuff serves as the Chairman of Israel Oil Company Limited Mr. Tsuff serves as the Chairman of the Board at Nitsba Holdings 1995 Limited He has been Chairman of Naphtha Israel Petroleum Corporation Limited since May 6, 2010. He has been the Chairman of J.O.E.L. Jerusalem Oil Exploration Lieutenantd since May 6, 2010. He serves as the Chairman of Airport City Limited He has been the Chairman of Naphtha Exploration Limited Partnership since May 6,2010. He has been Co-Chief Executive Officer of Isramco Incorporated since November 3, 2017. He has been the Chairman of Isramco Incorporated since May 1996 and has been its President and Director since 2012 and January 1996 respectively. He serves as the Chairman of Equital Limited He served as Chief Executive Officer of Isramco Incorporated since May 1996 until November 3, 2017. He serves as the Chairman of Isramco Oil and Gas Limited, Isramco Negev 2 Limited Partnership, Naphtha Partnership Management Limited, Naphtha Explorations Limited Partnership, I.O.C Partnership Management Limited, I.N.O.C –Dead Sea. He serves a Director of United Kingsway Limited, Y.H.K. General Managers Limited, Orhan Carmel Limited, Misgav Investment Company Limited, Tnuvot Keshet Limited, Keshet Development (2002) Limited, Keshet Management and Holdings (1999) Limited, Keshet Hotels Limited, Stations Enterprises Limited, Beit Egged Limited, Properties Enterprise & Development (N.Y.P.) Limited, K.N. Gas Station Limited, Neot Carmeli Construction and Holdings Limited, Ramla Mall Management Limited, Horev Center Management Company Limited, City Center Mall-Rehovot Limited, Rishon-Letzion (west) Center Management Limited, Ashtsipor Limited, Station Holdings Limited, Nitsba Europe S.A., Nitsba Actipol S.A., Zidcom Investment S.A., Nitsba Telecom S.A., Nitsba Participation S.A., Nitsba Holding B.V., SCI Taagid B.V., Naphta Holdings Limited, Ariso Holding S.a.R.L, I. O. C. – Israel Oil Company Limited, N.M.A. Energy Resources Limited, Nurget Enterprises S.A., Silverleed International S.A., Goodrich Global Limited Inventin Investment Corporation, Facto Holding Limited, M.A. Realistic Estate B.V., Ocarina Trading Limited Ameja Incorporated, Jay Petroleum Limited Liability Company, Jay Management Company Limited Liability Company, Isramco Energy Limited Liability Company, Isramco Resources Limited Liability Company, Field Tracking and Services Limited Liability Company, Associate Degree in ArtsA Well Service Limited Liability Company, Isramco Properties General ManagerBH, Stars Invest s.r.o., Unikurs Kft, Bivvy Kft, PotSdamer General ManagerBH, Optus 617 General ManagerBH, A.D. Realestate General ManagerBH, Dutch Family Holdings B.V., O.D.F. Building & Investments Limited, MCM Investments and Properties Limited and Painton Limited He is Chairman of YHK General Manager Limited (which entity effectively controls Equital, J.O.E.L., Naphtha Petroleum, and Naphtha Holdings)."
1,1,4200311,122319408,Haim Tsuff,[937726],"['Chairman, President & Co-CEO']",The Board (with Mr. Haim Tsuff recusing himself because of his membership in the Purchaser Group) unanimously recommends that you vote “FOR” the adoption of the Merger Agreement.,"Mr. Haim Tsuff serves as the Chairman of Israel Oil Company Limited Mr. Tsuff serves as the Chairman of the Board at Nitsba Holdings 1995 Limited He has been Chairman of Naphtha Israel Petroleum Corporation Limited since May 6, 2010. He has been the Chairman of J.O.E.L. Jerusalem Oil Exploration Lieutenantd since May 6, 2010. He serves as the Chairman of Airport City Limited He has been the Chairman of Naphtha Exploration Limited Partnership since May 6,2010. He has been Co-Chief Executive Officer of Isramco Incorporated since November 3, 2017. He has been the Chairman of Isramco Incorporated since May 1996 and has been its President and Director since 2012 and January 1996 respectively. He serves as the Chairman of Equital Limited He served as Chief Executive Officer of Isramco Incorporated since May 1996 until November 3, 2017. He serves as the Chairman of Isramco Oil and Gas Limited, Isramco Negev 2 Limited Partnership, Naphtha Partnership Management Limited, Naphtha Explorations Limited Partnership, I.O.C Partnership Management Limited, I.N.O.C –Dead Sea. He serves a Director of United Kingsway Limited, Y.H.K. General Managers Limited, Orhan Carmel Limited, Misgav Investment Company Limited, Tnuvot Keshet Limited, Keshet Development (2002) Limited, Keshet Management and Holdings (1999) Limited, Keshet Hotels Limited, Stations Enterprises Limited, Beit Egged Limited, Properties Enterprise & Development (N.Y.P.) Limited, K.N. Gas Station Limited, Neot Carmeli Construction and Holdings Limited, Ramla Mall Management Limited, Horev Center Management Company Limited, City Center Mall-Rehovot Limited, Rishon-Letzion (west) Center Management Limited, Ashtsipor Limited, Station Holdings Limited, Nitsba Europe S.A., Nitsba Actipol S.A., Zidcom Investment S.A., Nitsba Telecom S.A., Nitsba Participation S.A., Nitsba Holding B.V., SCI Taagid B.V., Naphta Holdings Limited, Ariso Holding S.a.R.L, I. O. C. – Israel Oil Company Limited, N.M.A. Energy Resources Limited, Nurget Enterprises S.A., Silverleed International S.A., Goodrich Global Limited Inventin Investment Corporation, Facto Holding Limited, M.A. Realistic Estate B.V., Ocarina Trading Limited Ameja Incorporated, Jay Petroleum Limited Liability Company, Jay Management Company Limited Liability Company, Isramco Energy Limited Liability Company, Isramco Resources Limited Liability Company, Field Tracking and Services Limited Liability Company, Associate Degree in ArtsA Well Service Limited Liability Company, Isramco Properties General ManagerBH, Stars Invest s.r.o., Unikurs Kft, Bivvy Kft, PotSdamer General ManagerBH, Optus 617 General ManagerBH, A.D. Realestate General ManagerBH, Dutch Family Holdings B.V., O.D.F. Building & Investments Limited, MCM Investments and Properties Limited and Painton Limited He is Chairman of YHK General Manager Limited (which entity effectively controls Equital, J.O.E.L., Naphtha Petroleum, and Naphtha Holdings)."
2,2,4200311,122319408,Haim Tsuff,[937726],"['Chairman, President & Co-CEO']","KingswayNameTitlePresent Principal EmploymentBusiness AddressCitizenshipHaim TsuffSole DirectorChairman of the Board and Co-Chief Executive Officer (since November 2017, previously Chief Executive Officer) and President of Isramco (positions held since May 1996); Chairman of the Board of Equital, JOEL, Naphtha and Isramco Negev 2 (since 2010)Van Merlenlaan 2a, 2103 GD Heemstede, NetherlandsIsrael and The NetherlandsYHK ManagerNameTitlePresent Principal EmploymentBusiness AddressCitizenshipHaim TsuffDirectorChairman of the Board and Co-Chief Executive Officer (since November 2017, previously Chief Executive Officer) and President of Isramco (positions held since May 1996); Chairman of the Board of Equital, JOEL, Naphtha and Isramco Negev 2 (since 2010)Van Merlenlaan 2a, 2103 GD Heemstede, NetherlandsIsrael and The NetherlandsBoaz TsuffDirectorTourism managementVan Merlenlaan 2a, 2103 GD Heemstede, NetherlandsIsrael and The NetherlandsBoaz SimonsDirectorVice President of Tavura Holdings Limited (since 2013); Head of Business Admiralinistration of Avraham Livnat Lieutenantd (since 2014)2, HazaonRamle, IsraelIsrael and AustraliaYHKYHK Manager is the general partner of YHK.","Mr. Haim Tsuff serves as the Chairman of Israel Oil Company Limited Mr. Tsuff serves as the Chairman of the Board at Nitsba Holdings 1995 Limited He has been Chairman of Naphtha Israel Petroleum Corporation Limited since May 6, 2010. He has been the Chairman of J.O.E.L. Jerusalem Oil Exploration Lieutenantd since May 6, 2010. He serves as the Chairman of Airport City Limited He has been the Chairman of Naphtha Exploration Limited Partnership since May 6,2010. He has been Co-Chief Executive Officer of Isramco Incorporated since November 3, 2017. He has been the Chairman of Isramco Incorporated since May 1996 and has been its President and Director since 2012 and January 1996 respectively. He serves as the Chairman of Equital Limited He served as Chief Executive Officer of Isramco Incorporated since May 1996 until November 3, 2017. He serves as the Chairman of Isramco Oil and Gas Limited, Isramco Negev 2 Limited Partnership, Naphtha Partnership Management Limited, Naphtha Explorations Limited Partnership, I.O.C Partnership Management Limited, I.N.O.C –Dead Sea. He serves a Director of United Kingsway Limited, Y.H.K. General Managers Limited, Orhan Carmel Limited, Misgav Investment Company Limited, Tnuvot Keshet Limited, Keshet Development (2002) Limited, Keshet Management and Holdings (1999) Limited, Keshet Hotels Limited, Stations Enterprises Limited, Beit Egged Limited, Properties Enterprise & Development (N.Y.P.) Limited, K.N. Gas Station Limited, Neot Carmeli Construction and Holdings Limited, Ramla Mall Management Limited, Horev Center Management Company Limited, City Center Mall-Rehovot Limited, Rishon-Letzion (west) Center Management Limited, Ashtsipor Limited, Station Holdings Limited, Nitsba Europe S.A., Nitsba Actipol S.A., Zidcom Investment S.A., Nitsba Telecom S.A., Nitsba Participation S.A., Nitsba Holding B.V., SCI Taagid B.V., Naphta Holdings Limited, Ariso Holding S.a.R.L, I. O. C. – Israel Oil Company Limited, N.M.A. Energy Resources Limited, Nurget Enterprises S.A., Silverleed International S.A., Goodrich Global Limited Inventin Investment Corporation, Facto Holding Limited, M.A. Realistic Estate B.V., Ocarina Trading Limited Ameja Incorporated, Jay Petroleum Limited Liability Company, Jay Management Company Limited Liability Company, Isramco Energy Limited Liability Company, Isramco Resources Limited Liability Company, Field Tracking and Services Limited Liability Company, Associate Degree in ArtsA Well Service Limited Liability Company, Isramco Properties General ManagerBH, Stars Invest s.r.o., Unikurs Kft, Bivvy Kft, PotSdamer General ManagerBH, Optus 617 General ManagerBH, A.D. Realestate General ManagerBH, Dutch Family Holdings B.V., O.D.F. Building & Investments Limited, MCM Investments and Properties Limited and Painton Limited He is Chairman of YHK General Manager Limited (which entity effectively controls Equital, J.O.E.L., Naphtha Petroleum, and Naphtha Holdings)."
3,3,4200311,122319408,Haim Tsuff,[937726],"['Chairman, President & Co-CEO']","EquitalNameTitlePresent Principal EmploymentBusiness AddressCitizenshipHaim TsuffDirectorChairman of the Board and Co-Chief Executive Officer (since November 2017, previously Chief Executive Officer) and President of Isramco (positions held since May 1996); Chairman of the Board of Equital, JOEL, Naphtha and Isramco Negev 2 (since 2010)Van Merlenlaan 2a, 2103 GD Heemstede, NetherlandsIsrael and The Netherlands67NameTitlePresent Principal EmploymentBusiness AddressCitizenshipHadar Ben-Gur Shem-TovDirectorDirector of Equital17/92 Haascala Boulevard Tel-Aviv, IsraelIsraelGilad RichmanDirectorCertified Public Accountant; Managing Partner of Richman8, Granit StreetPO Box 2695Petach Tikva, 4951407 IsraelIsraelBoaz SimonsDirectorVice President of Tavura Holdings Limited (since 2013); Head of Business Admiralinistration of Avraham Livnat Lieutenantd (since 2014)2, HazaonRamle, IsraelIsrael and AustraliaYosef YaromDirectorLecturer at Ben Gurion University (since 2014) and Haifa University (until 2018);Director of ORT Israel (since 2016) and HaPoalim bank (until 2017)7 Kalman Magen Street, Tel Aviv, IsraelIsrael and ArgentinaEran SaarChief Executive OfficerChief Executive Officer of Equital, Naphtha, JOEL, Parent, Isramco Negev 2 and NHL8, Granit StreetPO Box 2695Petach Tikva, 4951407 IsraelIsraelNoa LendnerGeneral Counsel and Corporate SecretaryGeneral Counsel and Corporate Secretary of Equital, Naphtha, and General Counsel of JOEL, Parent, NHL and Isramco Negev 28, Granit StreetPO Box 2695Petach Tikva, 4951407 IsraelIsraelEitan VolochChief Financial OfficerChief Financial Officer of Equital, Naphtha, JOEL, Parent, NHL and Isramco Negev 28, Granit StreetPO Box 2695Petach Tikva, 4951407 IsraelIsraelGuy Bar AdonControllerController of Equital, Naphtha, JOEL, Parent, NHL and Isramco Negev 28, Granit StreetPO Box 2695Petach Tikva, 4951407 IsraelIsraelDaniel PrytagInternal AuditorCertified Public Accountant, owner of a Certified Public Accountant firm and Internal Auditor of various companies, including Equital and Naphtha33, Jabotinsky StreetRamat Gan, IsraelIsraelJOELNameTitlePresent Principal EmploymentBusiness AddressCitizenshipHaim TsuffChairman of the BoardChairman of the Board and Co-Chief Executive Officer (since November 2017, previously Chief Executive Officer) and President of Isramco (positions held since May 1996); Chairman of the Board of Equital, JOEL, Naphtha and Isramco Negev 2 (since 2010)Van Merlenlaan 2a, 2103 GD Heemstede, NetherlandsIsrael and NetherlandsEran SaarChief Executive OfficerChief Executive Officer of Equital, Naphtha, JOEL, Parent, Isramco Negev 2 and NHL8, Granit StreetPO Box 2695Petach Tikva, 4951407 IsraelIsraelNoa LendnerGeneral CounselGeneral Counsel and Corporate Secretary of Equital, Naphtha, and General Counsel of JOEL, Parent, NHL and Isramco Negev 28, Granit StreetPO Box 2695Petach Tikva, 4951407 IsraelIsrael68NameTitlePresent Principal EmploymentBusiness AddressCitizenshipEitan VolochDirector and Chief Financial OfficerChief Financial Officer of Equital, Naphtha, JOEL, Parent, NHL and Isramco Negev 28, Granit StreetPO Box 2695Petach Tikva, 4951407 IsraelIsraelGuy Bar AdonControllerController of Equital, Naphtha, JOEL, Parent, NHL and Isramco Negev 28, Granit StreetPO Box 2695Petach Tikva, 4951407 IsraelIsraelDaniel PrytagInternal AuditorCertified Public Accountant, owner of a Certified Public Accountant firm and Internal Auditor of various companies, including Equital and Naphtha33, Jabotinsky StreetRamat Gan, IsraelIsraelNaphthaNameTitlePresent Principal EmploymentBusiness AddressCitizenshipHaim TsuffChairman of the BoardChairman of the Board and Co-Chief Executive Officer (since November 2017, previously Chief Executive Officer) and President of Isramco (positions held since May 1996); Chairman of the Board of Equital, JOEL, Naphtha and Isramco Negev 2 (since 2010)Van Merlenlaan 2a, 2103 GD Heemstede, NetherlandsIsrael and NetherlandsShmuel Meir MessenbergDirectorManaging Partner at Sigma City; Director of Africa Israel Residences Limited, Direct Finance Limited, IES Holdings Limited, Norstar Holdings Incorporated, Isras Investment Company Limited, Iintoo General Partnership Public Incorporated and General Partnership Pinto Afik 1 Limited","Mr. Haim Tsuff serves as the Chairman of Israel Oil Company Limited Mr. Tsuff serves as the Chairman of the Board at Nitsba Holdings 1995 Limited He has been Chairman of Naphtha Israel Petroleum Corporation Limited since May 6, 2010. He has been the Chairman of J.O.E.L. Jerusalem Oil Exploration Lieutenantd since May 6, 2010. He serves as the Chairman of Airport City Limited He has been the Chairman of Naphtha Exploration Limited Partnership since May 6,2010. He has been Co-Chief Executive Officer of Isramco Incorporated since November 3, 2017. He has been the Chairman of Isramco Incorporated since May 1996 and has been its President and Director since 2012 and January 1996 respectively. He serves as the Chairman of Equital Limited He served as Chief Executive Officer of Isramco Incorporated since May 1996 until November 3, 2017. He serves as the Chairman of Isramco Oil and Gas Limited, Isramco Negev 2 Limited Partnership, Naphtha Partnership Management Limited, Naphtha Explorations Limited Partnership, I.O.C Partnership Management Limited, I.N.O.C –Dead Sea. He serves a Director of United Kingsway Limited, Y.H.K. General Managers Limited, Orhan Carmel Limited, Misgav Investment Company Limited, Tnuvot Keshet Limited, Keshet Development (2002) Limited, Keshet Management and Holdings (1999) Limited, Keshet Hotels Limited, Stations Enterprises Limited, Beit Egged Limited, Properties Enterprise & Development (N.Y.P.) Limited, K.N. Gas Station Limited, Neot Carmeli Construction and Holdings Limited, Ramla Mall Management Limited, Horev Center Management Company Limited, City Center Mall-Rehovot Limited, Rishon-Letzion (west) Center Management Limited, Ashtsipor Limited, Station Holdings Limited, Nitsba Europe S.A., Nitsba Actipol S.A., Zidcom Investment S.A., Nitsba Telecom S.A., Nitsba Participation S.A., Nitsba Holding B.V., SCI Taagid B.V., Naphta Holdings Limited, Ariso Holding S.a.R.L, I. O. C. – Israel Oil Company Limited, N.M.A. Energy Resources Limited, Nurget Enterprises S.A., Silverleed International S.A., Goodrich Global Limited Inventin Investment Corporation, Facto Holding Limited, M.A. Realistic Estate B.V., Ocarina Trading Limited Ameja Incorporated, Jay Petroleum Limited Liability Company, Jay Management Company Limited Liability Company, Isramco Energy Limited Liability Company, Isramco Resources Limited Liability Company, Field Tracking and Services Limited Liability Company, Associate Degree in ArtsA Well Service Limited Liability Company, Isramco Properties General ManagerBH, Stars Invest s.r.o., Unikurs Kft, Bivvy Kft, PotSdamer General ManagerBH, Optus 617 General ManagerBH, A.D. Realestate General ManagerBH, Dutch Family Holdings B.V., O.D.F. Building & Investments Limited, MCM Investments and Properties Limited and Painton Limited He is Chairman of YHK General Manager Limited (which entity effectively controls Equital, J.O.E.L., Naphtha Petroleum, and Naphtha Holdings)."
4,4,4200311,122319408,Nir Hasson,[1001279938],['Independent Director'],"Nir Hasson was appointed to the Board in August 2014. Since 2019, Mr. Hasson is a director of business development at Karamba Security, a software company that focuses on automotive cybersecurity built into embedded software. Before that, Mr. Hasson was employed from 2015 to 2018 in a business development position at Akamai, a company focused on providing cloud-based cybersecurity. Prior to Akamai, Mr. Hasson served as Director of Enterprise Sales at TrapX Security from 2014 to 2015, a cybersecurity startup that provides protection against advanced threats. Before that, Mr. Hasson was employed by Jungo LTD, a company that was acquired by Cisco Systems in 2013, and Jungo Connectivity LTD, a spinoff coming from Jungo LTD acquisition, in the positions of Director of Business Development from 2013 to 2014.","Mr. Nir Hasson has been a Director of Isramco Incorporated since August 4, 2014. Mr. Hasson served as a Director of Enterprise Sales at TrapX Security since June 2014. Prior to TrapX, Mr. Hasson was employed by Jungo LTD, a company that was acquired by Cisco Systems in 2013 and Jungo Connectivity LTD, a spinoff coming from Jungo LTD acquisition, in the positions of Director of Business Development from 2013 to 2014 and World Wide Sales Manager from 2010 to 2013. Prior to joining Jungo LTD, Mr. Hasson was employed by Check Point Software Technologies LTD, in the positions of Project Manager from 2007 to 2008, Team Leader from 2006 to 2007 and VoIP Security Engineer from 2005 to 2006. Mr. Hasson was also employed by Intel Corp as a Software Engineer between 2002 and 2004. Mr. Hasson has more than 12 years of leadership and business experience mainly in the technology sector. Mr. Hasson is assuming a business development position at Akamai since 2015."
5,5,4200311,122319408,Zeev Koltovskoy,[1001288773],['Chief Accounting Officer'],"Zeev Koltovskoy was appointed Chief Accounting Officer in December 2012 after serving as the Company Director of Finance. Prior to joining the Company, Mr. Koltovskoy served as Director of Finance for Israel Oil Company Limited, an Israeli based affiliate, from June 2010 through August 2012. Prior to this, Mr. Koltovskoy worked for Allot Communications Limited as Assistant Controller and Compliance Manager from July 2009 through June 2010.","Mr. Zeev Koltovskoy has been the Chief Accounting Officer of Isramco Incorporated since December 2012. Previously, Mr. Koltovskoy served as Director of Finance at Isramco Incorporated Prior to joining the Isramco Incorporated, Mr. Koltovskoy served as Director of Finance for Israel Oil Company Limited, an Israeli based affiliate, from June 2010 through August 2012. Prior to this, Mr. Koltovskoy worked for Allot Communications Limited as Assistant Controller and Compliance Manager from July 2009 through June 2010. From November 2005 through July 2009, Mr. Koltovskoy was employed at Deloitte Brightman Almagor & Company, certified public accountants, where he served in several positions including Audit Manager from August 2008 to July 2009."
6,6,4200311,122319408,Max Pridgeon,[1001455926],['Lead Independent Director'],"Max Pridgeon has been a director of the Company since April 2001. Since January 2016, Mr. Pridgeon operates a business focused on the international trading of antiques. From December 2002 to January 2016, Mr. Pridgeon served as a director and executive officer of Griffin Decorations, a business which he founded.","Mr. Max Pridgeon has been an Independent Director of Isramco Incorporated since April 2001 and has been its Lead Independent Director since 2012. From December 2002 to January 2016, Mr. Pridgeon served as a director and executive officer of Griffin Decorations, a business which he founded. Since February 1999, Mr. Pridgeon served as a Manager of sales for Europe and the Middle East of Blenfin XI, Netherlands. He founded Master of Arts / MA / Masters Degree in ArtsXIM Wholesale and Marketing Company From April 1996 to January 1999, he served as a property acquisitions Consultant to M.A. Realistic Estate, Netherlands. From September 1989 to March 1995, he served as Account Manager and then Export Manager at VERNO Holland. Mr. Pridgeon served as a Director of Master of Arts / MA / Masters Degree in ArtsXIM Wholesale and Marketing Company from March 1995 to December 2002. Since January of 2016, Mr. Pridgeon operates a business focused on the international trading of antiques."
7,7,4200311,122319408,Anthony James,[1002111235],['General Counsel & Corporate Secretary'],"Anthony James joined the Company in May 2013 as legal counsel and was appointed Secretary of the Company in August 2013. Mr. James has served as General Counsel of the Company since June 2014. Prior to joining the Company, Mr. James was employed at the law firm of Streit, Peterson, Hall & Keeney LLimited Partnership in Houston, Texas as a partner (2013) and a participating associate (2010 to 2013).","Mr. Anthony James has been a General Counsel of Isramco Incorporated since June 2014 and has been its Corporate Secretary since August 2013. Mr. James joined Isramco Incorporated in May 2013 as legal counsel. Prior to joining the Isramco Inc, Mr. James was employed at the law firm of Streit, Peterson, Hall & Keeney LLimited Partnership in Houston, Texas as a partner (2013) and a participating associate (2010 to 2013). Prior to this, Mr. James was a solo practitioner from 2007 to 2010 where his practice focused on oil and gas related matters. Mr. James is board certified in Oil, Gas & Mineral Law by the Texas Board of Legal Specialization."
8,8,4200311,122319408,Joseph From,[1002141955],['Director'],"Joseph From was appointed to the Company Board in June 2010. Mr. From is employed as a drilling manager at Star Energy, a UK based energy company with a primary focus on gas storage development and the UK second largest onshore oil producer, a position that he has held since June 2007.","Mr. Joseph From, also known as Josef, has been Drilling Manager at star Energy since June 2007. Prior to joining Star Energy, from August 1998 to April 2007, Mr. From served as General Manager at Equital Limited, where he was in charge of oil and gas activities and operations, including drilling and production and economic evaluation of oil and gas projects. From 1997 to 1998, he served as Chief Engineer (Oil and Gas division) at Equital Limited where he oversaw drilling on onshore wells in Israel. He has been a Director of Isramco Incorporated since June 29, 2010."
9,9,4200311,122319408,Asaf Yarkoni,[1002142678],['Director'],"Asaf Yarkoni was appointed to the Company Board in December 2011. Mr. Yarkoni has been employed as the Chief Financial Officer of StorOne, a start-up company involved in Storage solutions, since 2013. In addition, Mr. Yarkoni has served as the Chief Financial Officer of Mother Choice, a bio-tech startup, since 2014 and as Chief Financial Officer of Quiet Therapeutics, another bio-tech startup, since 2015. From 2018 to 2019, Mr. Yarkoni also served as Chief Executive Officer of Cannassure Therapeutics Limited (previously known as Direct Capital Investment Lieutenantd), a TAssociate Degree in ScienceE traded company focused on the field of extraction of cannabis oils. Mr. Yarkoni is a certified public accountant with over four years of experience with a “Big Four” accounting firm and, prior to his employment at StorOne he served from 2010 to 2014 as the Integration and Business Development Manager at IBM.","Mr. Asaf Yarkoni serves as Director of Isramco, Incorporated since December 2011. Mr. Yarkoni is employed as the Chief Executive Officer of Direct Capital investments and as the Chief Financial Officer of StorOne, a start-up company involved in Storage solutions. Mr. Yarkoni is a certified public accountant with over four years of experience with a “Big Four” accounting firm and, prior to his employment at StorOne he served as the Integration and Business Development Manager at IBM and was the Chief Financial Officer of Storwize, a start-up company involved in the provision of data compression services that was acquired by IBM in 2010. Mr. Yarkoni has experience in public accounting and is familiar with the reporting requirements applicable to public companies, both in Israel and in the United States."
10,10,4200311,122319408,Edy F. Francis,[1002176966],['Co-CEO & CFO'],"Sincerely,Edy FrancisCo-Chief Executive Officer / Chief Financial OfficerNeither the Securities and Exchange Commission nor any state securities regulatory agency has approved or disapproved the merger, passed upon the merits or fairness of the merger or passed upon the adequacy or accuracy of the disclosure in this document. Any representation to the contrary is a criminal offense.","Mr. Edy F. Francis has been the Chief Financial Officer of Isramco Incorporated since August 2007 and serves as its Co-Chief Executive Officer since November 2017. Mr. Francis served as a Senior Vice President of Isramco Incorporated From December 2003 to August 2007 and served as its Principal Accounting Officer. Mr. Francis was affiliated with the Tel Aviv based office of Brightman Almagor & Company, Certified Public Accountants and a Member firm of Deloitte Touche Tohmatsu where his areas of practice included auditing publicly traded companies, auditing internal controls and preparing tax assessments. Prior to that, from May 2000 to June 2002, Mr. Francis was self employed primarily in the import and distribution of household pet products."
11,11,4200311,122319408,Edy F. Francis,[1002176966],['Co-CEO & CFO'],"Employment AgreementMr. Edy Francis, the Company Co-Chief Executive Officer / Chief Financial Officer, is entitled to severance benefits in the event of certain terminations of employment. These severance benefits are provided under an Employment Agreement between Isramco and the executive, incorporated as Exhibit 10.25 to the Company Annual Report on Form 10-K for the fiscal year ended December 31, 2018.","Mr. Edy F. Francis has been the Chief Financial Officer of Isramco Incorporated since August 2007 and serves as its Co-Chief Executive Officer since November 2017. Mr. Francis served as a Senior Vice President of Isramco Incorporated From December 2003 to August 2007 and served as its Principal Accounting Officer. Mr. Francis was affiliated with the Tel Aviv based office of Brightman Almagor & Company, Certified Public Accountants and a Member firm of Deloitte Touche Tohmatsu where his areas of practice included auditing publicly traded companies, auditing internal controls and preparing tax assessments. Prior to that, from May 2000 to June 2002, Mr. Francis was self employed primarily in the import and distribution of household pet products."
12,12,4200311,122319408,Edy F. Francis,[1002176966],['Co-CEO & CFO'],"Edy Francis was appointed Co-Chief Executive Officer in November 2017 and has served as Chief Financial Officer since August 2007. From December 2003 through August 2007, Mr. Francis was affiliated with the Tel Aviv based office of Brightman Almagor & Company, Certified Public Accountants and a member firm of Deloitte Touche Tohmatsu where his areas of practice included auditing publicly traded companies, auditing internal controls, and preparing tax assessments.","Mr. Edy F. Francis has been the Chief Financial Officer of Isramco Incorporated since August 2007 and serves as its Co-Chief Executive Officer since November 2017. Mr. Francis served as a Senior Vice President of Isramco Incorporated From December 2003 to August 2007 and served as its Principal Accounting Officer. Mr. Francis was affiliated with the Tel Aviv based office of Brightman Almagor & Company, Certified Public Accountants and a Member firm of Deloitte Touche Tohmatsu where his areas of practice included auditing publicly traded companies, auditing internal controls and preparing tax assessments. Prior to that, from May 2000 to June 2002, Mr. Francis was self employed primarily in the import and distribution of household pet products."
13,13,4200311,122319408,Frans Sluiter,[1002186674],['Director'],"Frans Sluiter was elected to the Board in 2011. Mr. Sluiter is owner and Managing Director with FTS Consulting, an IT strategy consulting firm, where he focuses on energy clients, helping them shape solutions and bringing expertise to solve critical business issues. Prior to joining FTS Consulting, Mr. Sluiter was a Managing Partner with Gartner from89May 2015 to June 2016 where he focused on Energy clients, helping them shape solutions and bringing expertise to solve critical business issues. From 2006 to 2015, Mr. Sluiter was employed at Accenture, where he served technology account lead for some of Accenture largest Oil and Gas clients, focused on increasing operational productivity through business transformation and integration of technology solutions.","Mr. Frans Sluiter is a Managing Partner with Gartner where he focuses on Energy clients, helping them shape solutions and bringing expertise to solve critical business issues. He has been a Managing Partner of Singularity Limited Liability Company, a Dallas based entity engaged in IT Services since January 1, 2006. Mr. Sluiter has over 15 years of experience related to business solutions of fortune 500 companies worldwide. Mr. Sluiter served as Senior Vice President responsible for Sales & Delivery of Intelligroup from November 2004 to January 2006, a New Jersey based company engaged in IT Consulting Services. He served as a Program Director of Intelligroup from March 2003 to October 2004. He served as Senior Project Manager of AtosOrigin in Saudi Arabia from July 2000 to February 2003. He served in several senior management positions where he managed and delivered complex system implementation projects for clients in Europe, the Middle East, South America and the US. He has been a Director of Isramco Incorporated since 2011 and also served as its Director from December 12, 2006 to September 2008. Prior to joining Gartner, Mr. Sluiter served as technology account lead for some of Accenture largest Oil and Gas clients, focused on increasing operational productivity through business transformation and solution integration."
14,14,4200311,122319408,Haim Tsuff,[937726],"['Chairman, President & Co-CEO']","Mr. Tsuff holds all of the outstanding voting shares of Kingsway, a Bahamian private company. He also serves as the sole director of United Kingsway. United Kingsway holds 74% of the outstanding membership interests in each of YHK, an Israeli limited partnership and YHK Manager, a private Israeli company that serves as the general partner of YHP. YHK holds 36% of the outstanding voting securities of Equital, an Israeli public company listed on the Tel Aviv Exchange. The address of United Kingsway is Spaarneweg 14, Cruquius 2142 EN, The Netherlands. The address of YHK and YHK Manager is 8 Granit Street, P. O. Box 2695, Petach Tikva, 4951407 Israel.","Mr. Haim Tsuff serves as the Chairman of Israel Oil Company Limited Mr. Tsuff serves as the Chairman of the Board at Nitsba Holdings 1995 Limited He has been Chairman of Naphtha Israel Petroleum Corporation Limited since May 6, 2010. He has been the Chairman of J.O.E.L. Jerusalem Oil Exploration Lieutenantd since May 6, 2010. He serves as the Chairman of Airport City Limited He has been the Chairman of Naphtha Exploration Limited Partnership since May 6,2010. He has been Co-Chief Executive Officer of Isramco Incorporated since November 3, 2017. He has been the Chairman of Isramco Incorporated since May 1996 and has been its President and Director since 2012 and January 1996 respectively. He serves as the Chairman of Equital Limited He served as Chief Executive Officer of Isramco Incorporated since May 1996 until November 3, 2017. He serves as the Chairman of Isramco Oil and Gas Limited, Isramco Negev 2 Limited Partnership, Naphtha Partnership Management Limited, Naphtha Explorations Limited Partnership, I.O.C Partnership Management Limited, I.N.O.C –Dead Sea. He serves a Director of United Kingsway Limited, Y.H.K. General Managers Limited, Orhan Carmel Limited, Misgav Investment Company Limited, Tnuvot Keshet Limited, Keshet Development (2002) Limited, Keshet Management and Holdings (1999) Limited, Keshet Hotels Limited, Stations Enterprises Limited, Beit Egged Limited, Properties Enterprise & Development (N.Y.P.) Limited, K.N. Gas Station Limited, Neot Carmeli Construction and Holdings Limited, Ramla Mall Management Limited, Horev Center Management Company Limited, City Center Mall-Rehovot Limited, Rishon-Letzion (west) Center Management Limited, Ashtsipor Limited, Station Holdings Limited, Nitsba Europe S.A., Nitsba Actipol S.A., Zidcom Investment S.A., Nitsba Telecom S.A., Nitsba Participation S.A., Nitsba Holding B.V., SCI Taagid B.V., Naphta Holdings Limited, Ariso Holding S.a.R.L, I. O. C. – Israel Oil Company Limited, N.M.A. Energy Resources Limited, Nurget Enterprises S.A., Silverleed International S.A., Goodrich Global Limited Inventin Investment Corporation, Facto Holding Limited, M.A. Realistic Estate B.V., Ocarina Trading Limited Ameja Incorporated, Jay Petroleum Limited Liability Company, Jay Management Company Limited Liability Company, Isramco Energy Limited Liability Company, Isramco Resources Limited Liability Company, Field Tracking and Services Limited Liability Company, Associate Degree in ArtsA Well Service Limited Liability Company, Isramco Properties General ManagerBH, Stars Invest s.r.o., Unikurs Kft, Bivvy Kft, PotSdamer General ManagerBH, Optus 617 General ManagerBH, A.D. Realestate General ManagerBH, Dutch Family Holdings B.V., O.D.F. Building & Investments Limited, MCM Investments and Properties Limited and Painton Limited He is Chairman of YHK General Manager Limited (which entity effectively controls Equital, J.O.E.L., Naphtha Petroleum, and Naphtha Holdings)."
15,15,4200311,122319408,Joseph From,[1002141955],['Director'],"From its engagement through the last week of November, Duff & Phelps worked on a preliminary analysis of the potential valuation of the Company for the Special Committee. Representatives from Duff & Phelps conducted significant financial due diligence on the various segments of the Company, including multiple telephonic meetings with Mr. Edy Francis, our Co-Chief Executive Officer and Chief Financial Officer, and Mr. James.","Mr. Joseph From, also known as Josef, has been Drilling Manager at star Energy since June 2007. Prior to joining Star Energy, from August 1998 to April 2007, Mr. From served as General Manager at Equital Limited, where he was in charge of oil and gas activities and operations, including drilling and production and economic evaluation of oil and gas projects. From 1997 to 1998, he served as Chief Engineer (Oil and Gas division) at Equital Limited where he oversaw drilling on onshore wells in Israel. He has been a Director of Isramco Incorporated since June 29, 2010."
16,16,4200311,122319408,Joseph From,[1002141955],['Director'],"From and after the effective time, no stockholder who has demanded appraisal rights will be entitled to vote his, her or its shares for any purpose, or to receive payment of dividends or other distributions on the stock, except dividends or other distributions on the holder shares of Common Stock, if any, payable to Isramco stockholders of record as of a time prior to the effective time; provided, however, that if no petition for an appraisal is filed, or if the stockholder delivers to the surviving corporation a written withdrawal of the demand for an appraisal and an acceptance of the merger, either within 60 days after the effective time or thereafter with the written approval of the corporation, then the right of such stockholder to an appraisal will cease. Once a petition for appraisal is filed with the Court of Chancery of the State of Delaware, however, the appraisal proceeding may not be dismissed as to any Isramco stockholder without the approval of the court.","Mr. Joseph From, also known as Josef, has been Drilling Manager at star Energy since June 2007. Prior to joining Star Energy, from August 1998 to April 2007, Mr. From served as General Manager at Equital Limited, where he was in charge of oil and gas activities and operations, including drilling and production and economic evaluation of oil and gas projects. From 1997 to 1998, he served as Chief Engineer (Oil and Gas division) at Equital Limited where he oversaw drilling on onshore wells in Israel. He has been a Director of Isramco Incorporated since June 29, 2010."
17,17,4200311,122319408,Joseph From,[1002141955],['Director'],"Indemnification; Directors’ and Officers’ InsuranceFrom and after the effective time, Naphtha and Parent will, and will cause the surviving corporation to, indemnify and hold harmless, and provide advancement of expenses to, the present and former officers and directors of Isramco and its subsidiaries (each of whom we refer to as an “indemnified party”) in respect of acts or omissions in their capacity as an officer or director of Isramco or any of its subsidiaries or any of their respective predecessors or as an officer, director, employee, fiduciary or agent of another agent if the indemnified party was serving in such capacity at the request of Isramco or any of its subsidiaries, to the fullest extent permitted by the DGCL or any other applicable law or provided under the certificate of incorporation, bylaws and any indemnification agreements and any other governing documents of Isramco and its subsidiaries in effect on the date of the Merger Agreement. In addition, Naphtha and Parent will, and will cause the surviving corporation to, advance fees, costs and expenses (including attorneys’ fees and disbursements) incurred by an indemnified party in connection with and prior to the final disposition of any proceeding to which an indemnified party is, has been or becomes a party or is otherwise involved (including as a witness) arising in whole or in part out of the fact that the indemnified party is or was an officer or directors of Isramco or any of its subsidiaries or any of their respective predecessors or is or was serving at the request of Isramco or any of its subsidiaries or any of their respective predecessors as an officer, director, employee, fiduciary or agent of another enterprise.","Mr. Joseph From, also known as Josef, has been Drilling Manager at star Energy since June 2007. Prior to joining Star Energy, from August 1998 to April 2007, Mr. From served as General Manager at Equital Limited, where he was in charge of oil and gas activities and operations, including drilling and production and economic evaluation of oil and gas projects. From 1997 to 1998, he served as Chief Engineer (Oil and Gas division) at Equital Limited where he oversaw drilling on onshore wells in Israel. He has been a Director of Isramco Incorporated since June 29, 2010."
0,0,4088406,122288767,Thomas F. Bonadio,[768548],['Independent Director'],"Thomas F. Bonadio, age 70, has served as a director since November 2010 and is the Chairman of the CurAegis Audit Committee. Mr. Bonadio is the Founder and Senior Counsel of the Bonadio Group, which he founded in 1978. Since that time, he has devoted his efforts to serving commercial companies in the Rochester area and helping the firm grow from two people to its present size of over 750 employees. Tom specializes in providing business advice to privately-held companies and their owners with a particular emphasis on helping privately-held companies maximize their value and return to shareholders. He works with a variety of industries including construction, manufacturing, professional services and real estate, and is particularly well-versed in mergers and acquisitions from strategic through financial implications, and has helped dozens of companies, including The Bonadio Group, navigate through these tricky waters.","Mr. Thomas F. Bonadio, also known as Tom, Certified Public Accountant founded Bonadio & Company, LLimited Partnership in 1978. Mr. Bonadio serves as a Managing Partner of Impact Capital. Mr. Bonadio serves as the Chief Executive Officer and Managing Partner of Bonadio & Company, LLimited Partnership. He has strong background in finance and business and has entrepreneurial experience. He serves as Member of Advisory Board of Ceipal Corporation He is employed at Buffalo Capital Partners. Mr. Bonadio served as a Managing Director and Principal of Argilus, Limited Liability Company. After graduation from St. John Fisher College in 1971, Mr. Bonadi served for seven years with Arthur Andersen & Company in Rochester, New York. He served as Chairman of the Board of Trustees for St. John Fisher College and Chairman of the College Accounting Advisory Board. He has been an Independent Director of CurAegis Technologies, Incorporated since November 22, 2010. He has been a Director of Paychex, Incorporated since January 13, 2017. He serves as a Board Member of Eagle Productivity Solutions, CLIX Photo, Moore Stephens North America, Windsor Technology, and Clearwater Organic Farms New York, Limited Liability Company. He served as an Independent Director of Conceptus, Incorporated from September 2003 to June 5, 2013. He was named a ""Certified Public Accountant ALLSTAR"" by Certified Public Accountant Magazine, an ""Outstanding Alumni"" by St. John Fisher and received The Point of Light Foundation Award, sponsored by President George W. Bush. Mr. Bonadio success and contributions within the community have been recognized by multiple awards, including, the prestigious Herbert W. Vanden Brul Award presented by the Rochester Institute of Technology in 2016; Managing Partner Elite by Accounting Today in 2013, the Rochester Business Hall of Fame in 2010, Businessperson of the Year in 2009 by the Rochester Chamber of Commerce, and in 1990, the Accounting Alumnus of the Year Award from St. John Fisher College. Recently, Mr. Bonadio was honored as a Rochester Business Journal business ICON. He is a Director of Royal Oak Realty Trust (formerly Buckingham Properties Group). Mr. Bonadio has been active for many years in various charitable, cultural and professional organizations, including Junior Achievement, United Way, Small Business Council Chief Executive Officer Roundtable, the City of Rochester City Budget Review Committee and the Athena Awards. He also serves on multiple private and public boards. In addition to other community activities, he has been active in many community organizations and not-for-profit boards. He has also served as a member of the Monroe County Jobs Creation Task Force and the St. John Fisher Alumni Activities Committee. Mr. Bonadio is a successful entrepreneur. Mr. Bonadio is a Certified Public Accountant in 1973 and a Member of the American Institute of Certified Public Accountants and the New York State Society of Certified Public Accountants. He holds a Bachelor Degree in Business Administration in Accounting and an Honorary Doctorate from St. John Fisher College."
1,1,4088406,122288767,Charles N. Mills,[1001221877],['Independent Director'],"Charles N. Mills, age 80, has served as a director since November 2010. Mr. Mills is the co-Chief Executive Officer, along with his son, Aaron, of a commercial real estate development firm he founded in 1973, whose primary business has been the development and construction of several highly successful corporate office parks and retail properties. Previously, he was a partner in a law firm he founded in 1967 of Mills, Schwartz and White which later merged to become Bernstein, Mills, Schwartz, White and Bernstein. Mr. Mills substantially concentrated on real estate syndication, venture capital, and securities law.","Mr. Charles N. Mills served as the Chief Executive Officer of Crosskeys Corporation. Mr. Mills founded the law firm of Mills, Schwartz and White in 1967 which later merged to become Bernstein, Mills, Schwartz, White and Bernstein. Mr. Mills substantially concentrated on real estate syndication, venture capital and securities law. Mr. Mills ventured into his own commercial real estate development firm in 1973 and serves as co-Chief Executive Officer. He has been an Independent Director of CurAegis Technologies, Incorporated (formerly known as Torvec Incorporated) since November 3, 2010. He is also active in several charitable organizations in his community. Mr. Mills holds a Bachelor Degree in Science degree in Business Admiralinistration from Syracuse University and a Law Degree from Cornell Law School."
2,2,4088406,122288767,John W. Heinricy,[1001221999],['Independent Director'],"John W. Heinricy, age 71, has served as a director since November 2010. Since 2008, he has served as president of Heinrocket Incorporated, an international automotive consulting firm specializing in vehicle testing and development, high-performance driver training, race car development, vehicle forensics and expert witness. He is also on the board of the National Corvette Museum Motorsports Park and was elected to the National Corvette Museum Hall of Fame in 2014. From 2001 to 2008, Mr. Heinricy was the director of High-Performance Vehicle Operations in General Motor Performance Division, responsible for the planning, development, testing, and execution of all the performance versions of General Manager vehicles, from the Cobalt SS to the Cadillac CTS-V. Mr. Heinricy began his career at General Motors in 1970 and worked in various leadership positions, including vehicle development manager for the Corvette platform, the head of vehicle integration engineering for the Corvette, and chief engineer for the Camaro and Firebird.","Mr. John W. Heinricy served as the Director of High Performance Vehicle Operations in General Manager Performance Division, retiring from General Manager in 2008. Mr. Heinricy has served as president of Heinrocket Incorporated, since 2008. Mr. Heinricy is also a legendary race-car driver. Mr. Heinricy has raced Corvettes, Camaros and Pontiac Firebirds professionally since 1984, driving in over 240 professional races, including thirty-five 24-hour races, has won 4 Professional Driver Championships, 13 SCCA National Championships, has set 3 FIA world speed records and was the 2001 President Cup recipient. In the summer of 2010, he won six out of six SCCA races, driving a C-5 Corvette equipped with CurAegis IsoTorque® differential. He is also on the board of the National Corvette Museum Motorsports Park and was elected to the National Corvette Museum Hall of Fame in 2014. From 2001 to 2008, Mr. Heinricy was the director of High-Performance Vehicle Operations in General Motor Performance Division, responsible for the planning, development, testing and execution of all the performance versions of General Manager vehicles, from the Cobalt SS to the Cadillac CTS-V. Mr. Heinricy began his career at General Motors in 1970. Early in his career he was assigned to the Milford Proving Grounds where he became immersed in the development and testing of General Manager vehicles. Mr. Heinricy became Vehicle Development Manager for the Corvette platform in 1983 and in 1993, he became assistant Chief Engineer for the Corvette. In 1997, he became Chief Engineer for the Camaro and Firebird and was appointed Director of Vehicle Dynamics for General Manager cars and trucks in 2001. Through his company, Heinrocket Incorporated, Mr. Heinricy today is an international automotive Consultant, specializing in vehicle testing and development, engineered solutions, high performance driver training, race car development and motivational speaking. He has been an Independent Director of CurAegis Technologies, Incorporated since November 3, 2010. He holds a Bachelor Degree in Science Master in Engineering Degree from South Dakota School of Mines and Technology University and his Master Degree in Business Administration Degree from Michigan State Advanced Management Program. He earned his Bachelor Degree in Science Master in Engineering degree from South Dakota School of Mines and Technology University and his Master Degree in Business Administration degree from Michigan State Advanced Management Program."
3,3,4088406,122288767,Thomas J. Labus,[1001232308],['Independent Director'],"Thomas J. Labus, age 73, has served as a director since December 2012. Since 2012, Mr. Labus has served as the president of SCIRE Corporation, an engineering consulting firm specializing in hydraulics. From 1991 through 2012, Mr. Labus held an appointment as a Professor of Mechanical Engineering at the Milwaukee School of Engineering (Master of ScienceOE) from which he recently retired. At Master of ScienceOE, Mr. Labus was instrumental in developing a fluid power option in the mechanical engineering technology program, and in developing long-term industrial partnerships with companies such as Caterpillar and John Deere in the field of advanced fluid power technologies. Additionally, he taught in the Master of Engineering program at Master of ScienceOE in the areas of mechanical engineering and fluid power.","Prof. Thomas J. Labus has been an Independent Director of CurAegis Technologies, Incorporated (formerly known as Torvec Incorporated) since December 20, 2012. Prof. Labus has served as the president of SCIRE Corporation since 2012. Prof. Labus is nationally known as one of the foremost experts in hydraulics with additional background in fluid mechanics, high-pressure engineering, actuation/controls systems, pneumatics, materials evaluation and mechanical design and analysis. With over fifty years of experience, he has an incredible wealth of knowledge on both the technical side and the market in the hydraulics industry. Prof. Labus held an appointment as a Professor of Mechanical Engineering at the Milwaukee School of Engineering (Master of ScienceOE) from which he retired from 1991 to 2012. At Master of ScienceOE, Prof. Labus was instrumental in developing a fluid power option in the mechanical engineering technology program and in developing long-term industrial partnerships with companies such as Caterpillar and John Deere in the field of advanced fluid power technologies. Additionally he taught the Masters of Engineering program at Master of ScienceOE in the area of mechanical engineering and fluid power. He earned his Bachelor Degree in Science degree from Purdue University in Aeronautical Engineering and his Master of Science degree from the University of Illinois in Theoretical and Applied Mechanics."
4,4,4088406,122288767,Richard A. Kaplan,[1001368878],['CEO & Executive Director'],"Information About Executive OfficersIn addition to Richard A. Kaplan and Keith E. Gleasman, the Company other executive officer is Kathleen A. Browne, Chief Financial Officer and Secretary.","Mr. Richard A. Kaplan, also known as Dick, has been the Chief Executive Officer of CurAegis Technologies, Incorporated (formerly known as Torvec Incorporated) since October 4, 2010. Mr. Kaplan served as the Chief Executive Officer of Pictometry International Corporation, from 2000 to August 1, 2010 and served as its President until August 1, 2010. Previously, Mr. Kaplan lead and developed a number of other successful businesses in industries including retail floor covering, advertising and marketing, computer software, real estate development and human resource development. Mr. Kaplan served as President and Chief Executive Officer of Pictometry International Limited Liability Company since August 1999. Mr. Kaplan founded Flooring America in 1989. He served as the Chairman of Worksmart International Incorporated from 1995 to 1998 and as Chairman of Richland Industries Corporation from 1972 to 1995. He served as the Chairman of Flooring America, Incorporated from 1989 to February 1994 and also Director since 1989. He has been an Executive Director of CurAegis Technologies, Incorporated since October 4, 2010. He served as Director of Pictometry International Corporation since August 1, 2010. Mr. Kaplan was also designated the “Businessperson of the Year” in 2007 for his accomplishments at Pictometry. Mr. Kaplan is on the boards of Caldwell Manufacturing and Viggi Corporation. He has also been very active in the community in academic institutions and charitable organizations, including member of Board of Trustees at Rochester Institute of Technology (“RIT”), Nazareth College, and the University of Rochester Medical Center as well as directorships at Venture Creations (an RIT business incubator), Camp Good Days and Special Times, Rochester Child, Rochester Broadway Theatre League, George Eastman House, the Center for Governmental Research and others. He attended Rochester Institute of Technology and the University of Buffalo where he majored in Accounting and minored in Economics. Mr. Kaplan business success and contributions within the community have been recognized by multiple awards, including the prestigious Herbert W. Vanden Brul Entrepreneurial Award presented by RIT E. Philip Saunders College of Business in April 2007. In 2012, he was inducted into the Rochester Business Hall of Fame. Mr. Kaplan has an extensive background in economics, accounting, management and executive leadership. He is regularly sought out by startups, universities and other organizations for which he has provided private consulting and guest lecturing on marketing, economics and organizational development."
5,5,4088406,122288767,Gary A. Siconolfi,[1001488967],['Chairman of the Board'],"Gary A. Siconolfi, age 67, has served as a director since October 2002, and has been the Company board chair since 2005. Since 1995, Mr. Siconolfi has been the sole owner of his own commercial real estate business. Mr. Siconolfi acted as an advisor to the Company from 1999 through 2002, at which time he joined the board. From 1984 to 1995, he was the owner and president of Panorama Dodge, Incorporated, Penfield, New York and from 1989 to 1995 he was the owner and president of Panorama Collision, Incorporated, East Rochester, New York, where he started and managed a highly successful auto/truck dealership and collision business. Prior to opening the dealership and collision business, Mr. Siconolfi acquired extensive knowledge in the automotive industry, working in sales, sales management and general management at various automotive businesses. He has completed more than 100 programs sponsored by Chrysler Corporation, Ford Motor Company and General Motors in fields such as management, sales management, sales, customer relations, human resources and service training, and he has earned numerous awards given by these companies.","Mr. Gary A. Siconolfi served as a Secretary of CurAegis Technologies, Incorporated Mr. Siconolfi acted as an advisor to CurAegis Technologies, Incorporated, from 1999 through 2002. Mr. Siconolfi was the owner and president of Panorama Dodge, Incorporated, Penfield New York from 1984 to 1995 and of Panorama Collision, Incorporated, East Rochester, New York from 1989 to 1995. He started and managed a highly successful auto/truck dealership and collision business, building the business to annual sales of $20 million, with five departments and 65 employees. Prior to opening the dealership and collision business, Mr. Siconolfi acquired an excellent foundation in the automotive business, working in sales, sales management and general management at Vanderstyne Ford, Schrieber Buick, Judge Motor Corporation and Meisenzahl Auto Parts, all in the Rochester area. He has been the Chairman of CurAegis Technologies, Incorporated since August 19, 2005 and has been its Independent Director since October 31, 2002. He has completed 100+ programs sponsored by Chrysler Corporation, Ford Motor Company and General Motors in fields such as management, sales management, sales, customer relations, human resources and service training. He earned numerous awards given by these companies. He is a very active participant in his community."
6,6,4088406,122288767,William W. Destler,[1001542026],['Independent Director'],"William W. Destler, age 72, has served as a director since September 2009. DoctorDestler was president of Rochester Institute of Technology from July 1, 2007 to June 30, 2017. He was the ninth president in the university 182-year history. Prior to RIT, he was senior vice president for academic affairs and provost of the University of Maryland at College Park, where he rose from the ranks of research associate and assistant professor of electrical engineering to senior vice president and provost. At Maryland, he also served as electrical engineering department chair, dean of the A. James Clark School of Engineering, interim vice president for university advancement, vice president for research, and dean of the graduate school.","DoctorWilliam W. Destler, Ph.D. was the President of Rochester Institute of Technology (RIT) from July 1, 2007 to June 30, 2017 and was the ninth president in the university 182-year history. At RIT, DoctorDestler is responsible for one of the nation leading career-oriented universities with 16,450 students from all 50 states and more than 100 foreign countries, 2,800 faculty and staff, an annual operating budget of more than $492 million and an endowment of more than $600 million. DoctorDestler served as Senior Vice President of Academic Affairs and Provost of University of Maryland at College Park, here he rose from the ranks of research associate and assistant professor of electrical engineering to senior vice president and provost. DoctorDestler spent more than 30 years at the University of Maryland, rising from the ranks of Research Associate and Assistant Professor of Electrical Engineering to Senior Vice President and Provost. At Maryland, he also served as Electrical Engineering Department Chair, Dean of the A. James Clark School of Engineering, Interim Vice President for University Advancement, Vice President for Research and Dean of the Graduate School. As Engineering School Dean, DoctorDestler created the Gemstone Program. During his term as graduate school dean, student applications increased by more than 20 percent and research funding rose by more than 30 percent. While Interim Vice President for advancement, DoctorDestler was credited with securing a $25 million gift from Comcast Corporation for naming rights supporting the construction of the Comcast Center sports arena. As Senior Vice President for Academic Affairs, retention increased and the graduation rate rose from 62 percent to 80 percent over five years. Other achievements at Maryland include leading a faculty team in the creation of a cross-disciplinary master degree program in telecommunications, originating the Hinman Chief Executive Officers Program, a living-learning entrepreneurship initiative for undergraduate students and involvement in the President Promise. DoctorDestler is an international authority on high-power microwave sources and advanced accelerator concepts. He is best known for his pioneering work in the collective acceleration of heavy ions, achieving the highest energies to date by this method and for his development of large orbit microwave devices, including large orbit gyrotrons and rotating beam free electron lasers. DoctorDestler has been an Independent Director of CurAegis Technologies, Incorporated (also known as Torvec Incorporated) since September 15, 2009. DoctorDestler served as a Director of Maryland Technology Development Corporation (alternatively TEDCO). DoctorDestler serves on the American Council on Education Commission on Effective Leadership and is a board member of the National Institute of Aerospace Foundation. He is a Member of the board of New York Commission on Independent Colleges and Universities and serves on a number of Rochester-community boards -- Rochester General Health System, GreaterRochester Enterprise, Rochester Business Alliance and High Tech of Rochester. DoctorDestler has consulted for government agencies and private firms, received more than $40 million in grants and contracts, published more than 200 journal articles and book chapters and presented many papers. DoctorDestler has also directed 18 masters and doctoral student theses and earned awards for his teaching. DoctorDestler holds a bachelor degree from Stevens Institute of Technology and a Ph.D. from Cornell University. Both degrees were in the field of applied physics."
7,7,4088406,122288767,Kathleen A. Browne,[1001974147],"['CFO, Principal Accounting Officer & Corporate Secretary']","Kathleen A. Browne, age 64, has served as chief financial officer, corporate secretary, and principal accounting officer since April 2015. From 2007 to 2015, Ms. Browne managed her own professional services and consulting business. Ms. Browne provided consulting services to the Company from April 2015 through August 2015 and joined the Company in September 2015. From 2007 to 2015 she served as chief financial officer in several development stage businesses including U-Vend, Incorporated and NaturalNano, Incorporated Ms. Browne also served as the Controller and Chief Accountant for Paychex (2001-2004) and W. R. Grace (1996-2001). Ms. Browne spent thirteen years in public accounting with PricewaterhouseCoopers. Ms. Browne is a Certified Public Accountant with a degree in accounting from St. John Fisher College in Rochester, NY.","Ms. Kathleen A. Browne, also known as Kathy, Certified Public Accountant, has been the Chief Financial Officer, Principal Accounting Officer and Corporate Secretary at CurAegis Technologies, Incorporated since April 2015. Ms. Browne responsibilities include the monitoring of business and financial controls, public reporting, system assessment as well as providing guidance in the development of business strategies. Ms. Browne served as the Chief Financial Officer of U-Vend, Incorporated, from June 3, 2014 to November 4, 2015. Ms. Browne is a senior financial executive with thirteen years of Big Four public accounting experience and over twenty years in Executive/Officer level finance positions. She served as Interim Chief Financial officer at CurAegis Technologies, Incorporated from April 13, 2015 to September 01, 2015. She spent thirteen years in public accounting at PricewaterhouseCoopers prior to joining the private sector in 1992. She was the Owner of K. Browne Consulting from 2007 to 2014, which she founded in 2007. Ms. Browne served as Acting Chief Financial Officer of NaturalNano, Incorporated from February 2009 to June 2009 and Principal Accounting Officer until June 2009. From 2007 to 2015, Ms. Browne managed her own professional services and consulting business. Ms. Browne provided consulting services to CurAegis Technologies, Incorporated, from April 2015 through August 2015. Ms. Browne was a Founding Officer of NaturalNano, Incorporated from 2004 to August 2007 and Chief Financial Officer from July 2005 to June 2009 and served as its Secretary and Treasurer until August 2007. Ms. Browne served as Interim Chief Financial Officer of Migo Software, Incorporated from January 15, 2008 to April 1, 2008. She served as Chief Financial Officer, Principal Accounting Officer, Secretary and Treasurer at Cementitious Materials Incorporated Prior to NaturalNano, Ms. Browne served as Corporate Controller and Chief Accountant of Paychex, Incorporated from January 2001 to December 2004. From 1996 to 2000, she served as the Vice President of Finance, Chief Accounting Officer and Corporate Controller of W.R. Grace & Company. From 1992 to 1996, Ms. Browne served in various financial positions for Bausch & Lomb in Rochester, New York such as Vice President and Director of Finance. She began her career in public accounting with Price Waterhouse from 1977 to 1982 and from 1985 to 1996. From 1977 to 1992, Ms. Browne served with the Rochester, New York office of Price Waterhouse. She is a Member of the American Institute of Certified Accountants and the New York State Society of Certified Public Accountants. She is a Certified Public Accountant. She was a Financial Advisor and Consultant from August 2007 to December 2007. Ms. Browne holds a Bachelor of Science degree in accounting from St. John Fisher College in Rochester, NY."
8,8,4088406,122288767,E. Philip Saunders,[48678],['Independent Director'],"E. Philip Saunders, age 81, has served as a director since November 2010. Since 1990, Mr. Saunders has been the president and chief executive officer of Saunders Management Company, a firm that he owns. He also is chairman of the board of Genesee Regional Bank and Valley Fuels and serves on the board of directors for American Rock Salt, Lewis Tree, Paul Smiths, Passero Associates, Royal Oak Realty Trust, Western New York Energy, University of Rochester, Rochester Institute of Technology and the Young Entrepreneurs Academy.","Mr. E. Philip Saunders serves as President and Chief Executive Officer of Saunders Management Company, a firm that he owns, since 1990. Mr. Saunders serves as the Chief Executive Officer at Swain Ski & Snowboard Center. Mr. Saunders served as a Consultant to American Rock Salt Company Limited Liability Company and Member of Business Council of DeltaPoint Capital III L.P. Mr. Saunders is the owner of Swain Ski Center in Swain, NY and Bristol Harbour Resort in Canandaigua, NY. He is also owner of Essex Property Management, which maintains over 100 commercial properties. He has been a Member of the Board of Managers at American Rock Salt Company Limited Liability Company since November 1998. Mr. Saunders served as the Chief Executive Officer at American Rock Salt Limited Liability Company from May 2000 to September 2003. He also served as the Chief Executive Officer of Truckstops of America Incorporated which he founded. Mr. Saunders has successfully diversified his interests to auto and truck rental, recreation and tourism, packaged foods, property management and banking. He was Owner of Econocar International and Richardson Foods. He served as Senior Vice President of Ryder Systems. Mr. Saunders was also the Chief Executive Officer at Econo-Car International Incorporated and Richardson Foods Corporation. He served as the Chairman and Chief Executive Officer at Travel Ports of America Incorporated, which he founded since November, 1987. Mr. Saunders served as the Chairman and Chief Executive Officer at Sugar Creek Corporation, which he founded, and its subsidiaries, W.W. Griffith Oil Company since 1977 and Sugar Creek tores, Incorporated since 1982. He serves as Chairman of the Board of Directors for Genesee Regional Bank and Valley Fuels. He served as the Vice Chairman at the Genesee Regional Bank (formerly the Lyndon Guaranty Bank) since April, 1997. Mr. Saunders has been an Independent Director at American Rock Salt, Limited Liability Company, since October 1998 and He had been Independent Director at CurAegis Technologies, Incorporated since November 3, 2010. Until 2019. He serves as a Director of Greater Rochester Bancorp, Incorporated, Rochester Blue Cross & Blue Shield, Griffith Energy, Western New York Energy, Paul Smiths College, the American Red Cross, Lewis Tree Service, the Rochester Institute of Technology, PCORE Electric Company, Incorporated, The National Association of Truckstop Operators Foundation, Passero Associates, Royal Oak Realty Trust, University of Rochester and the Young Entrepreneurs Academy. Mr. Saunders served as Director at Genesee Valley Trust Company. Mr. Saunders served as a Director of Hahn Automotive Warehouse Incorporated since May 1992. He served as a Director of Travel Ports of America Incorporated since 1979. Mr. Saunders served as a Director of Truckstops of America, Incorporated and Ryder Systems, Incorporated He served as Director of Boys Scouts of America-Steuben Area Council. He has also held executive management positions with Ryder and Richardsons Foods Corporation He served as a Director of Richardson Food Corporation (a distributor of dessert toppings and condiments). Mr. Saunders served as a Director of Fleet Bank of New York, Excellus Cross/Blue Shield, Incorporated of Rochester, Rochester General Hospital, Security-Norstar Ryder Systems and the Boy Scouts of America-Steuben Area Council and the Petroleum Marketing Education Foundation. Mr. Saunders was elected to the Rochester Business Hall of Fame in 2004. He has received numerous awards for his contributions to the community, including the Herbert W. Vanden Brul Entrepreneurial Award and 2017 Volunteer of the Year award from the Rochester Institute of Technology College of Business (now known as the E. Philip Saunders College of Business). He received Teddi Award from Camp Good Days and Special Times and the Livingston County Citizen of the Year. Mr. Saunders is a member of Livonia Central School Athletic Hall of Fame and the National Association of Travel Centers Hall of Fame. He holds Doctorate of Commercial Science from Paul Smiths College."
9,9,4088406,122288767,Lance F. Drummond,[486825],['Director'],"Lance F. Drummond, age 64, has served as a director since December 2018. Mr. Drummond is currently a board member for Federal Home Loan Mortgage Corporation (Freddie Mac) where he has served on the Audit Committee and Nominations and Governance Committee since 2015. He is a board member for United Community Bank Incorporated since 2018, where he serves on the Risk Committee, Nominating and Governance Committee and Compensation Committee. He is also a member of the Public Board of Governors for the Financial Industry Regulatory Authority (FINRA).","Mr. Lance F. Drummond is a Director at CurAegis Technologies, Incorporated since December 11, 2018. He has been a Director of United Community Banks, Incorporated since June 20, 2018. Mr. Drummond served as Executive Vice President of Operations and Technology at The TD Canada Trust Company and at The Toronto-Dominion Bank. Mr. Drummond served as an Executive Vice President of Human Resources and Shared Services at Fiserv Incorporated from 2009 to 2011. He served as an Executive Vice President of Strategic Growth Initiatives at Fiserv Incorporated since April 6, 2009. He has many years of progressive business and technology experience. He joined Fiserv after more than six years at Bank of America where he led the Online Bank and ATM Operations and managed the largest consumer online bank in the U.S., serving millions of active online consumers, bill payers and mobile subscribers. He was also responsible for delivering capabilities across the largest bank-owned network of ATMs in the country, including the deployment of deposit image ATMs. Prior to that, Mr. Drummond served as the Service and Fulfillment Operations executive for Global Technology and Operations, providing end-to-end operations support for all of Bank of America customers, banking centers and 18,000 ATMs. His team responsibilities included image, ACH, EDI and check processing, lockbox services, ATM service and fulfillment, statements, cash services, card production and deposit services, including product compliance and operations. Mr. Drummond currently serves on the board of GSE and chairs its technology working group. He initially led supply chain management when he joined Bank of America in 2002. Before joining Bank of America, he worked with Eastman Kodak Company for 26 years in a variety of technology and leadership positions. He served as Chief Operating Officer for the Kodak office professional products division. He has been an Independent Director of Federal Home Loan Mortgage Corporation (Freddie Mac) since July 13, 2015. He received the MIT Sloan Fellowship in 1994 and the Aspen Institute Henry Crown Fellowship in 1998. Mr. Drummond earned a Bachelor degree in Business Management from Boston University, a Master degree in Business Admiralinistration from the Simon Business School at the University of Rochester and a Master degree in Management Science from MIT."
10,10,4088406,122288767,Thomas F. Bonadio,[768548],['Independent Director'],"Mr. Bonadio is active in community life, serving as a Commissioner of the Monroe County Case Commission, Monroe County Jobs Creation Task Force and on the St. John Fisher College Alumni Activities Committee. Tom has served as adjunct faculty at the Rochester Institute of Technology and as a Trustee and Chairman of the Accounting Advisory Board of St. John Fisher College. He is past Chairman of the Board of Trustees of St. John Fisher College. tom has been the recipient of numerous professional and community awards including: the Accounting Alumnus of the Year from St. John Fisher College in 1990, the Business Person of the Year in 2009 from the Rochester Chamber of Commerce, he was an inductee to the Rochester Business Hall of Fame in 2010, in 2016 he was named the Accounting Today Managing Partner Elite Honoree, and in 2016 was named honored with the Herbert W. Vanden Brul Award from Rochester Institute of Technology.","Mr. Thomas F. Bonadio, also known as Tom, Certified Public Accountant founded Bonadio & Company, LLimited Partnership in 1978. Mr. Bonadio serves as a Managing Partner of Impact Capital. Mr. Bonadio serves as the Chief Executive Officer and Managing Partner of Bonadio & Company, LLimited Partnership. He has strong background in finance and business and has entrepreneurial experience. He serves as Member of Advisory Board of Ceipal Corporation He is employed at Buffalo Capital Partners. Mr. Bonadio served as a Managing Director and Principal of Argilus, Limited Liability Company. After graduation from St. John Fisher College in 1971, Mr. Bonadi served for seven years with Arthur Andersen & Company in Rochester, New York. He served as Chairman of the Board of Trustees for St. John Fisher College and Chairman of the College Accounting Advisory Board. He has been an Independent Director of CurAegis Technologies, Incorporated since November 22, 2010. He has been a Director of Paychex, Incorporated since January 13, 2017. He serves as a Board Member of Eagle Productivity Solutions, CLIX Photo, Moore Stephens North America, Windsor Technology, and Clearwater Organic Farms New York, Limited Liability Company. He served as an Independent Director of Conceptus, Incorporated from September 2003 to June 5, 2013. He was named a ""Certified Public Accountant ALLSTAR"" by Certified Public Accountant Magazine, an ""Outstanding Alumni"" by St. John Fisher and received The Point of Light Foundation Award, sponsored by President George W. Bush. Mr. Bonadio success and contributions within the community have been recognized by multiple awards, including, the prestigious Herbert W. Vanden Brul Award presented by the Rochester Institute of Technology in 2016; Managing Partner Elite by Accounting Today in 2013, the Rochester Business Hall of Fame in 2010, Businessperson of the Year in 2009 by the Rochester Chamber of Commerce, and in 1990, the Accounting Alumnus of the Year Award from St. John Fisher College. Recently, Mr. Bonadio was honored as a Rochester Business Journal business ICON. He is a Director of Royal Oak Realty Trust (formerly Buckingham Properties Group). Mr. Bonadio has been active for many years in various charitable, cultural and professional organizations, including Junior Achievement, United Way, Small Business Council Chief Executive Officer Roundtable, the City of Rochester City Budget Review Committee and the Athena Awards. He also serves on multiple private and public boards. In addition to other community activities, he has been active in many community organizations and not-for-profit boards. He has also served as a member of the Monroe County Jobs Creation Task Force and the St. John Fisher Alumni Activities Committee. Mr. Bonadio is a successful entrepreneur. Mr. Bonadio is a Certified Public Accountant in 1973 and a Member of the American Institute of Certified Public Accountants and the New York State Society of Certified Public Accountants. He holds a Bachelor Degree in Business Administration in Accounting and an Honorary Doctorate from St. John Fisher College."
11,11,4088406,122288767,Charles N. Mills,[1001221877],['Independent Director'],Mr. Mills has been active in several charitable organizations. Mr. Mills holds a Bachelor Degree in Science degree in business administration from Syracuse University and a doctor of laws from The Cornell Law School.,"Mr. Charles N. Mills served as the Chief Executive Officer of Crosskeys Corporation. Mr. Mills founded the law firm of Mills, Schwartz and White in 1967 which later merged to become Bernstein, Mills, Schwartz, White and Bernstein. Mr. Mills substantially concentrated on real estate syndication, venture capital and securities law. Mr. Mills ventured into his own commercial real estate development firm in 1973 and serves as co-Chief Executive Officer. He has been an Independent Director of CurAegis Technologies, Incorporated (formerly known as Torvec Incorporated) since November 3, 2010. He is also active in several charitable organizations in his community. Mr. Mills holds a Bachelor Degree in Science degree in Business Admiralinistration from Syracuse University and a Law Degree from Cornell Law School."
12,12,4088406,122288767,John W. Heinricy,[1001221999],['Independent Director'],"Mr. Heinricy is also a legendary race-car driver. Mr. Heinricy has raced Corvettes, Camaros, and Pontiac Firebirds professionally since 1984, driving in over 240 professional races, including thirty-five 24-hour races, has won 4 Professional Driver Championships, 13 SCCA National Championships, has set 3 FIA world speed records and was a 2001 President Cup recipient. In the summer of 2010, he won six out of six SCCA races, driving a C-5 Corvette equipped with CurAegis IsoTorque® differential.","Mr. John W. Heinricy served as the Director of High Performance Vehicle Operations in General Manager Performance Division, retiring from General Manager in 2008. Mr. Heinricy has served as president of Heinrocket Incorporated, since 2008. Mr. Heinricy is also a legendary race-car driver. Mr. Heinricy has raced Corvettes, Camaros and Pontiac Firebirds professionally since 1984, driving in over 240 professional races, including thirty-five 24-hour races, has won 4 Professional Driver Championships, 13 SCCA National Championships, has set 3 FIA world speed records and was the 2001 President Cup recipient. In the summer of 2010, he won six out of six SCCA races, driving a C-5 Corvette equipped with CurAegis IsoTorque® differential. He is also on the board of the National Corvette Museum Motorsports Park and was elected to the National Corvette Museum Hall of Fame in 2014. From 2001 to 2008, Mr. Heinricy was the director of High-Performance Vehicle Operations in General Motor Performance Division, responsible for the planning, development, testing and execution of all the performance versions of General Manager vehicles, from the Cobalt SS to the Cadillac CTS-V. Mr. Heinricy began his career at General Motors in 1970. Early in his career he was assigned to the Milford Proving Grounds where he became immersed in the development and testing of General Manager vehicles. Mr. Heinricy became Vehicle Development Manager for the Corvette platform in 1983 and in 1993, he became assistant Chief Engineer for the Corvette. In 1997, he became Chief Engineer for the Camaro and Firebird and was appointed Director of Vehicle Dynamics for General Manager cars and trucks in 2001. Through his company, Heinrocket Incorporated, Mr. Heinricy today is an international automotive Consultant, specializing in vehicle testing and development, engineered solutions, high performance driver training, race car development and motivational speaking. He has been an Independent Director of CurAegis Technologies, Incorporated since November 3, 2010. He holds a Bachelor Degree in Science Master in Engineering Degree from South Dakota School of Mines and Technology University and his Master Degree in Business Administration Degree from Michigan State Advanced Management Program. He earned his Bachelor Degree in Science Master in Engineering degree from South Dakota School of Mines and Technology University and his Master Degree in Business Administration degree from Michigan State Advanced Management Program."
13,13,4088406,122288767,Thomas J. Labus,[1001232308],['Independent Director'],"Mr. Labus is nationally known as one of the foremost experts in hydraulics, with additional background in fluid mechanics, high-pressure engineering, actuation/controls systems, pneumatics, materials evaluation, and mechanical design and analysis. With over forty-eight years of experience, he has a wealth of knowledge on both the technology and the market in the hydraulics industry.","Prof. Thomas J. Labus has been an Independent Director of CurAegis Technologies, Incorporated (formerly known as Torvec Incorporated) since December 20, 2012. Prof. Labus has served as the president of SCIRE Corporation since 2012. Prof. Labus is nationally known as one of the foremost experts in hydraulics with additional background in fluid mechanics, high-pressure engineering, actuation/controls systems, pneumatics, materials evaluation and mechanical design and analysis. With over fifty years of experience, he has an incredible wealth of knowledge on both the technical side and the market in the hydraulics industry. Prof. Labus held an appointment as a Professor of Mechanical Engineering at the Milwaukee School of Engineering (Master of ScienceOE) from which he retired from 1991 to 2012. At Master of ScienceOE, Prof. Labus was instrumental in developing a fluid power option in the mechanical engineering technology program and in developing long-term industrial partnerships with companies such as Caterpillar and John Deere in the field of advanced fluid power technologies. Additionally he taught the Masters of Engineering program at Master of ScienceOE in the area of mechanical engineering and fluid power. He earned his Bachelor Degree in Science degree from Purdue University in Aeronautical Engineering and his Master of Science degree from the University of Illinois in Theoretical and Applied Mechanics."
14,14,4088406,122288767,Keith E. Gleasman,[1001338727],"['Co-Founder, President & Director']","Mr. Gleasman is a co-inventor on a notable number of the Company patents. His strengths include his marketing and sales executive experience, in addition to his design and development knowledge. His particular expertise has been in the area of defining and demonstrating products to persons within all levels of the automotive industry, race crew members, educators and students. He has spent virtually his entire career involved with inventing and manufacturing new and creative mechanical components for the automotive industry, working closely with his father, Vernon E. Gleasman. Mr. Gleasman earned his B.S. degree from Ashland University in Ashland, Ohio.","Mr. Keith E. Gleasman Co-Founded CurAegis Technologies, Incorporated (Alternate name: Torvec Incorporated) in September 26, 1996 and has been its President since September 26, 1996. Mr. Gleasman served as Vice President of Marketing from October 2010 to 2016 and Chief Technology Officer from 2005 to 2010 at Torvec, Incorporated Mr. Gleasman served as a Consultant of Torvec, Incorporated He is a Co-Inventor with Vernon E. Gleasman on a notable number Torvec Patents, Mr. Gleasman strengths include his extensive marketing and sales executive experience, in addition to his design and development knowledge. His particular expertise has been in the area of defining and demonstrating the products to persons within all levels of the automotive industry, race crew members, educators and students. From 1983 to 1986, Mr. Gleasman was the vice president of sales for the Power Systems Division of Gleason Works. As former Vice President of Sales for the unrelated Gleason Corporation (Power Systems Division), designed and conducted seminars on vehicle driveline systems for engineers at the U.S. army tank automotive command. He designed a complete nationwide after-market program for the Torsen Differential, which included trade show participation for the largest after-market shows in the U.S., SCORE and SEMaster of Arts / MA / Masters Degree in Arts. He has Extensive after-market experience including pricing, distribution, sales catalogs, promotions, trade show booths designs and vehicle sponsorships. He is Responsible for over 300 articles in trade magazines highlighting the Torsen Differential (e.g., Popular Science, Auto Week, Motor Trend, Off-Road and Four Wheeler). He designed FTV vehicle prototype, assisted in developing engineering and manufacturing procedures for the Torsen Differential and for all of the Torvec prototypes. He instructed race teams on use of the Torsen Differential (Indy cars, Formula 1, SCCA Trans-Am, IMaster of ScienceA, GTO, GTU, GT-1, NAssociate Degree in ScienceCAR, truck pullers and off-road racers). Mr. Gleasman has significant patent experience and directly assists CurAegis Technologies, Incorporated engineers with the documentation of their inventions and liaises with patent attorneys in the patent filing and evaluation process. He has been trained for up-to-date manufacturing techniques such as NWH, statistical process control and MRP II. He has extensive technical and practical experience, covering all aspect of Torvec, Incorporated products such as, promotion, engineering and manufacturing. He has been a Director of CurAegis Technologies, Incorporated since September 26, 1996. He has spent virtually his entire career involved with inventing and manufacturing new and creative mechanical components for the automotive industry, working closely with Vernon E. Gleasman. He serves as a Director of Ice Surface Development, Incorporated Mr. Gleasman holds a B.S. degree from Ashland University in Ashland, Ohio."
15,15,4088406,122288767,Richard A. Kaplan,[1001368878],['CEO & Executive Director'],"Mr. Kaplan currently is on the board of Viggi Corporation. He has been very active in the community in academic institutions and charitable organizations, including present roles on the Board of Trustees at Rochester Institute of Technology, Nazareth College and the University of Rochester Medical Center as well as directorships at Venture Creations (an RIT business incubator), Camp Good Days and Special Times, Rochester Child, Rochester Broadway Theatre League, George Eastman House, and the Center for Governmental Research.","Mr. Richard A. Kaplan, also known as Dick, has been the Chief Executive Officer of CurAegis Technologies, Incorporated (formerly known as Torvec Incorporated) since October 4, 2010. Mr. Kaplan served as the Chief Executive Officer of Pictometry International Corporation, from 2000 to August 1, 2010 and served as its President until August 1, 2010. Previously, Mr. Kaplan lead and developed a number of other successful businesses in industries including retail floor covering, advertising and marketing, computer software, real estate development and human resource development. Mr. Kaplan served as President and Chief Executive Officer of Pictometry International Limited Liability Company since August 1999. Mr. Kaplan founded Flooring America in 1989. He served as the Chairman of Worksmart International Incorporated from 1995 to 1998 and as Chairman of Richland Industries Corporation from 1972 to 1995. He served as the Chairman of Flooring America, Incorporated from 1989 to February 1994 and also Director since 1989. He has been an Executive Director of CurAegis Technologies, Incorporated since October 4, 2010. He served as Director of Pictometry International Corporation since August 1, 2010. Mr. Kaplan was also designated the “Businessperson of the Year” in 2007 for his accomplishments at Pictometry. Mr. Kaplan is on the boards of Caldwell Manufacturing and Viggi Corporation. He has also been very active in the community in academic institutions and charitable organizations, including member of Board of Trustees at Rochester Institute of Technology (“RIT”), Nazareth College, and the University of Rochester Medical Center as well as directorships at Venture Creations (an RIT business incubator), Camp Good Days and Special Times, Rochester Child, Rochester Broadway Theatre League, George Eastman House, the Center for Governmental Research and others. He attended Rochester Institute of Technology and the University of Buffalo where he majored in Accounting and minored in Economics. Mr. Kaplan business success and contributions within the community have been recognized by multiple awards, including the prestigious Herbert W. Vanden Brul Entrepreneurial Award presented by RIT E. Philip Saunders College of Business in April 2007. In 2012, he was inducted into the Rochester Business Hall of Fame. Mr. Kaplan has an extensive background in economics, accounting, management and executive leadership. He is regularly sought out by startups, universities and other organizations for which he has provided private consulting and guest lecturing on marketing, economics and organizational development."
16,16,4088406,122288767,Lance F. Drummond,[486825],['Director'],"Mr. Drummond earned a Bachelor degree in Business Management from Boston University, a Master degree in Business Admiralinistration from the Simon Business School at the University of Rochester and a Master degree in Management Science from MIT. Mr. Drummond received the MIT Sloan Fellowship in 1994 and the Aspen Institute Henry Crown Fellowship in 1998.","Mr. Lance F. Drummond is a Director at CurAegis Technologies, Incorporated since December 11, 2018. He has been a Director of United Community Banks, Incorporated since June 20, 2018. Mr. Drummond served as Executive Vice President of Operations and Technology at The TD Canada Trust Company and at The Toronto-Dominion Bank. Mr. Drummond served as an Executive Vice President of Human Resources and Shared Services at Fiserv Incorporated from 2009 to 2011. He served as an Executive Vice President of Strategic Growth Initiatives at Fiserv Incorporated since April 6, 2009. He has many years of progressive business and technology experience. He joined Fiserv after more than six years at Bank of America where he led the Online Bank and ATM Operations and managed the largest consumer online bank in the U.S., serving millions of active online consumers, bill payers and mobile subscribers. He was also responsible for delivering capabilities across the largest bank-owned network of ATMs in the country, including the deployment of deposit image ATMs. Prior to that, Mr. Drummond served as the Service and Fulfillment Operations executive for Global Technology and Operations, providing end-to-end operations support for all of Bank of America customers, banking centers and 18,000 ATMs. His team responsibilities included image, ACH, EDI and check processing, lockbox services, ATM service and fulfillment, statements, cash services, card production and deposit services, including product compliance and operations. Mr. Drummond currently serves on the board of GSE and chairs its technology working group. He initially led supply chain management when he joined Bank of America in 2002. Before joining Bank of America, he worked with Eastman Kodak Company for 26 years in a variety of technology and leadership positions. He served as Chief Operating Officer for the Kodak office professional products division. He has been an Independent Director of Federal Home Loan Mortgage Corporation (Freddie Mac) since July 13, 2015. He received the MIT Sloan Fellowship in 1994 and the Aspen Institute Henry Crown Fellowship in 1998. Mr. Drummond earned a Bachelor degree in Business Management from Boston University, a Master degree in Business Admiralinistration from the Simon Business School at the University of Rochester and a Master degree in Management Science from MIT."
